(module DPAK-DPAK3P456_987X240L137X77T560X500N_ST_L78M05 (layer F.Cu) (tedit 5ACD1575)
  (fp_text reference REF** (at 0 -6.6) (layer F.SilkS)
    (effects (font (size 1 1) (thickness 0.1)))
  )
  (fp_text value DPAK-DPAK3P456_987X240L137X77T560X500N_ST_L78M05 (at 0 0 90) (layer F.Fab)
    (effects (font (size 1 1) (thickness 0.1)))
  )
  (fp_line (start -3.35 -5.6) (end 3.35 -5.6) (layer F.CrtYd) (width 0.01))
  (fp_line (start 3.35 -5.6) (end 3.35 5.6) (layer F.CrtYd) (width 0.01))
  (fp_line (start 3.35 5.6) (end -3.35 5.6) (layer F.CrtYd) (width 0.01))
  (fp_line (start -3.35 -5.6) (end -3.35 5.6) (layer F.CrtYd) (width 0.01))
  (fp_line (start -3.65 -5.9) (end -3.65 5.9) (layer F.CrtYd) (width 0.01))
  (fp_line (start 3.65 5.9) (end -3.65 5.9) (layer F.CrtYd) (width 0.01))
  (fp_line (start 3.65 -5.9) (end 3.65 5.9) (layer F.CrtYd) (width 0.01))
  (fp_line (start -3.65 -5.9) (end 3.65 -5.9) (layer F.CrtYd) (width 0.01))
  (fp_line (start -3.35 -5.2) (end -3.35 2.7) (layer F.Fab) (width 0.01))
  (fp_line (start 3.35 -5.2) (end 3.35 2.7) (layer F.Fab) (width 0.01))
  (fp_line (start -3.35 -5.2) (end 3.35 -5.2) (layer F.Fab) (width 0.01))
  (fp_line (start -3.35 2.7) (end 3.35 2.7) (layer F.Fab) (width 0.01))
  (fp_line (start -1.84 2.7) (end -1.84 5.2) (layer F.Fab) (width 0.01))
  (fp_line (start -2.73 2.7) (end -2.73 5.2) (layer F.Fab) (width 0.01))
  (fp_line (start 2.73 2.7) (end 2.73 5.2) (layer F.Fab) (width 0.01))
  (fp_line (start 1.84 2.7) (end 1.84 5.2) (layer F.Fab) (width 0.01))
  (fp_line (start -2.73 5.2) (end -1.84 5.2) (layer F.Fab) (width 0.01))
  (fp_line (start 1.84 5.2) (end 2.73 5.2) (layer F.Fab) (width 0.01))
  (fp_line (start -3.35 1.3) (end -3.35 2.5) (layer F.SilkS) (width 0.1))
  (fp_line (start 3.35 1.3) (end 3.35 2.5) (layer F.SilkS) (width 0.1))
  (fp_line (start -1.2 2.7) (end 1.2 2.7) (layer F.SilkS) (width 0.1))
  (fp_line (start -3.35 2.5) (end -1.2 2.5) (layer F.SilkS) (width 0.1))
  (fp_line (start -1.2 2.5) (end -1.2 2.7) (layer F.SilkS) (width 0.1))
  (fp_line (start 3.35 2.5) (end 1.2 2.5) (layer F.SilkS) (width 0.1))
  (fp_line (start 1.2 2.5) (end 1.2 2.7) (layer F.SilkS) (width 0.1))
  (fp_line (start 0.45 2.7) (end 0.45 3.7) (layer F.SilkS) (width 0.1))
  (fp_line (start -0.45 2.7) (end -0.45 3.7) (layer F.SilkS) (width 0.1))
  (fp_line (start -0.45 3.7) (end 0.45 3.7) (layer F.SilkS) (width 0.1))
  (pad 1 smd roundrect (at -2.286 4.2) (size 1.5 2.8) (layers F.Cu F.Paste F.Mask)(roundrect_rratio 0.1))
  (pad 2 smd roundrect (at 2.256 4.2) (size 1.5 2.8) (layers F.Cu F.Paste F.Mask)(roundrect_rratio 0.1))
  (pad 3 smd roundrect (at 0 -2.3) (size 6.3 6.6) (layers F.Cu F.Paste F.Mask)(roundrect_rratio 0.05))
)
