(module LQFP100_QFP50P1600X1600X160-100HD (layer F.Cu) (tedit 5C37B4EE)
  (fp_text reference REF** (at 0 0) (layer F.SilkS)
    (effects (font (size 1 1) (thickness 0.1)))
  )
  (fp_text value QFP100P50_1600X1600X160 (at 0 0) (layer F.Fab)
    (effects (font (size 1 1) (thickness 0.1)))
  )
  (fp_line (start 7.1 -6.15) (end 8.65 -6.15) (layer F.CrtYd) (width 0.01))
  (fp_line (start 7.1 -6.15) (end 7.1 -7.1) (layer F.CrtYd) (width 0.01))
  (fp_line (start 7.1 -7.1) (end 6.15 -7.1) (layer F.CrtYd) (width 0.01))
  (fp_line (start 6.15 -7.1) (end 6.15 -8.65) (layer F.CrtYd) (width 0.01))
  (fp_line (start 6.45 -8.95) (end -6.45 -8.95) (layer F.CrtYd) (width 0.01))
  (fp_line (start -6.15 -8.65) (end -6.15 -7.1) (layer F.CrtYd) (width 0.01))
  (fp_line (start -7.1 -6.15) (end -8.65 -6.15) (layer F.CrtYd) (width 0.01))
  (fp_line (start -6.45 -8.95) (end -6.45 -7.4) (layer F.CrtYd) (width 0.01))
  (fp_line (start -8.95 -6.45) (end -7.4 -6.45) (layer F.CrtYd) (width 0.01))
  (fp_line (start -8.95 -6.45) (end -8.95 6.45) (layer F.CrtYd) (width 0.01))
  (fp_line (start -8.65 6.15) (end -7.1 6.15) (layer F.CrtYd) (width 0.01))
  (fp_line (start -7.1 6.15) (end -7.1 7.1) (layer F.CrtYd) (width 0.01))
  (fp_line (start -7.1 7.1) (end -6.15 7.1) (layer F.CrtYd) (width 0.01))
  (fp_line (start -6.15 7.1) (end -6.15 8.65) (layer F.CrtYd) (width 0.01))
  (fp_line (start -6.45 8.95) (end 6.45 8.95) (layer F.CrtYd) (width 0.01))
  (fp_line (start 6.15 8.65) (end 6.15 7.1) (layer F.CrtYd) (width 0.01))
  (fp_line (start 6.15 7.1) (end 7.1 7.1) (layer F.CrtYd) (width 0.01))
  (fp_line (start 7.1 7.1) (end 7.1 6.15) (layer F.CrtYd) (width 0.01))
  (fp_line (start 7.1 6.15) (end 8.65 6.15) (layer F.CrtYd) (width 0.01))
  (fp_line (start 8.95 6.45) (end 8.95 -6.45) (layer F.CrtYd) (width 0.01))
  (fp_line (start 6.15 -8.65) (end -6.15 -8.65) (layer F.CrtYd) (width 0.01))
  (fp_line (start -6.15 -7.1) (end -7.1 -7.1) (layer F.CrtYd) (width 0.01))
  (fp_line (start -7.1 -6.15) (end -7.1 -7.1) (layer F.CrtYd) (width 0.01))
  (fp_line (start -7.4 -7.4) (end -7.4 -6.45) (layer F.CrtYd) (width 0.01))
  (fp_line (start -6.45 -7.4) (end -7.4 -7.4) (layer F.CrtYd) (width 0.01))
  (fp_line (start -8.65 6.15) (end -8.65 -6.15) (layer F.CrtYd) (width 0.01))
  (fp_line (start -6.15 8.65) (end 6.15 8.65) (layer F.CrtYd) (width 0.01))
  (fp_line (start 8.65 6.15) (end 8.65 -6.15) (layer F.CrtYd) (width 0.01))
  (fp_line (start 7.4 -7.4) (end 6.45 -7.4) (layer F.CrtYd) (width 0.01))
  (fp_line (start 6.45 -8.95) (end 6.45 -7.4) (layer F.CrtYd) (width 0.01))
  (fp_line (start 7.4 -7.4) (end 7.4 -6.45) (layer F.CrtYd) (width 0.01))
  (fp_line (start 7.4 -6.45) (end 8.95 -6.45) (layer F.CrtYd) (width 0.01))
  (fp_line (start -7.4 7.4) (end -6.45 7.4) (layer F.CrtYd) (width 0.01))
  (fp_line (start -6.45 8.95) (end -6.45 7.4) (layer F.CrtYd) (width 0.01))
  (fp_line (start -7.4 7.4) (end -7.4 6.45) (layer F.CrtYd) (width 0.01))
  (fp_line (start -7.4 6.45) (end -8.95 6.45) (layer F.CrtYd) (width 0.01))
  (fp_line (start 6.45 8.95) (end 6.45 7.4) (layer F.CrtYd) (width 0.01))
  (fp_line (start 6.45 7.4) (end 7.4 7.4) (layer F.CrtYd) (width 0.01))
  (fp_line (start 7.4 7.4) (end 7.4 6.45) (layer F.CrtYd) (width 0.01))
  (fp_line (start 7.4 6.45) (end 8.95 6.45) (layer F.CrtYd) (width 0.01))
  (fp_line (start -7 -7) (end 7 -7) (layer F.Fab) (width 0.01))
  (fp_line (start 7 7) (end 7 -7) (layer F.Fab) (width 0.01))
  (fp_line (start -7 7) (end 7 7) (layer F.Fab) (width 0.01))
  (fp_line (start -7 7) (end -7 -7) (layer F.Fab) (width 0.01))
  (fp_line (start -7 -7) (end -7 -6.25) (layer F.SilkS) (width 0.1))
  (fp_line (start -7 -7) (end -6.25 -7) (layer F.SilkS) (width 0.1))
  (fp_circle (center -7.7 -7.7) (end -7.4 -7.7) (layer F.SilkS) (width 0.1))
  (fp_line (start -7 6.25) (end -7 7) (layer F.SilkS) (width 0.1))
  (fp_line (start -7 7) (end -6.25 7) (layer F.SilkS) (width 0.1))
  (fp_line (start 6.25 7) (end 7 7) (layer F.SilkS) (width 0.1))
  (fp_line (start 7 7) (end 7 6.25) (layer F.SilkS) (width 0.1))
  (fp_line (start 6.25 -7) (end 7 -7) (layer F.SilkS) (width 0.1))
  (fp_line (start 7 -7) (end 7 -6.25) (layer F.SilkS) (width 0.1))
  (pad 1 smd roundrect (at -7.9 -6) (size 1.5 0.3) (layers F.Cu F.Paste F.Mask) (roundrect_rratio 0.25))
  (pad 3 smd roundrect (at -7.9 -5) (size 1.5 0.3) (layers F.Cu F.Paste F.Mask) (roundrect_rratio 0.25))
  (pad 4 smd roundrect (at -7.9 -4.5) (size 1.5 0.3) (layers F.Cu F.Paste F.Mask) (roundrect_rratio 0.25))
  (pad 5 smd roundrect (at -7.9 -4) (size 1.5 0.3) (layers F.Cu F.Paste F.Mask) (roundrect_rratio 0.25))
  (pad 6 smd roundrect (at -7.9 -3.5) (size 1.5 0.3) (layers F.Cu F.Paste F.Mask) (roundrect_rratio 0.25))
  (pad 7 smd roundrect (at -7.9 -3) (size 1.5 0.3) (layers F.Cu F.Paste F.Mask) (roundrect_rratio 0.25))
  (pad 8 smd roundrect (at -7.9 -2.5) (size 1.5 0.3) (layers F.Cu F.Paste F.Mask) (roundrect_rratio 0.25))
  (pad 9 smd roundrect (at -7.9 -2) (size 1.5 0.3) (layers F.Cu F.Paste F.Mask) (roundrect_rratio 0.25))
  (pad 10 smd roundrect (at -7.9 -1.5) (size 1.5 0.3) (layers F.Cu F.Paste F.Mask) (roundrect_rratio 0.25))
  (pad 11 smd roundrect (at -7.9 -1) (size 1.5 0.3) (layers F.Cu F.Paste F.Mask) (roundrect_rratio 0.25))
  (pad 12 smd roundrect (at -7.9 -0.5) (size 1.5 0.3) (layers F.Cu F.Paste F.Mask) (roundrect_rratio 0.25))
  (pad 13 smd roundrect (at -7.9 0) (size 1.5 0.3) (layers F.Cu F.Paste F.Mask) (roundrect_rratio 0.25))
  (pad 14 smd roundrect (at -7.9 0.5) (size 1.5 0.3) (layers F.Cu F.Paste F.Mask) (roundrect_rratio 0.25))
  (pad 15 smd roundrect (at -7.9 1) (size 1.5 0.3) (layers F.Cu F.Paste F.Mask) (roundrect_rratio 0.25))
  (pad 16 smd roundrect (at -7.9 1.5) (size 1.5 0.3) (layers F.Cu F.Paste F.Mask) (roundrect_rratio 0.25))
  (pad 17 smd roundrect (at -7.9 2 180) (size 1.5 0.3) (layers F.Cu F.Paste F.Mask) (roundrect_rratio 0.25))
  (pad 18 smd roundrect (at -7.9 2.5 180) (size 1.5 0.3) (layers F.Cu F.Paste F.Mask) (roundrect_rratio 0.25))
  (pad 19 smd roundrect (at -7.9 3 180) (size 1.5 0.3) (layers F.Cu F.Paste F.Mask) (roundrect_rratio 0.25))
  (pad 20 smd roundrect (at -7.9 3.5 180) (size 1.5 0.3) (layers F.Cu F.Paste F.Mask) (roundrect_rratio 0.25))
  (pad 21 smd roundrect (at -7.9 4 180) (size 1.5 0.3) (layers F.Cu F.Paste F.Mask) (roundrect_rratio 0.25))
  (pad 22 smd roundrect (at -7.9 4.5 180) (size 1.5 0.3) (layers F.Cu F.Paste F.Mask) (roundrect_rratio 0.25))
  (pad 23 smd roundrect (at -7.9 5 180) (size 1.5 0.3) (layers F.Cu F.Paste F.Mask) (roundrect_rratio 0.25))
  (pad 24 smd roundrect (at -7.9 5.5 180) (size 1.5 0.3) (layers F.Cu F.Paste F.Mask) (roundrect_rratio 0.25))
  (pad 25 smd roundrect (at -7.9 6 180) (size 1.5 0.3) (layers F.Cu F.Paste F.Mask) (roundrect_rratio 0.25))
  (pad 26 smd roundrect (at -6 7.9 90) (size 1.5 0.3) (layers F.Cu F.Paste F.Mask) (roundrect_rratio 0.25))
  (pad 27 smd roundrect (at -5.5 7.9 90) (size 1.5 0.3) (layers F.Cu F.Paste F.Mask) (roundrect_rratio 0.25))
  (pad 28 smd roundrect (at -5 7.9 90) (size 1.5 0.3) (layers F.Cu F.Paste F.Mask) (roundrect_rratio 0.25))
  (pad 29 smd roundrect (at -4.5 7.9 90) (size 1.5 0.3) (layers F.Cu F.Paste F.Mask) (roundrect_rratio 0.25))
  (pad 30 smd roundrect (at -4 7.9 90) (size 1.5 0.3) (layers F.Cu F.Paste F.Mask) (roundrect_rratio 0.25))
  (pad 31 smd roundrect (at -3.5 7.9 90) (size 1.5 0.3) (layers F.Cu F.Paste F.Mask) (roundrect_rratio 0.25))
  (pad 32 smd roundrect (at -3 7.9 90) (size 1.5 0.3) (layers F.Cu F.Paste F.Mask) (roundrect_rratio 0.25))
  (pad 33 smd roundrect (at -2.5 7.9 90) (size 1.5 0.3) (layers F.Cu F.Paste F.Mask) (roundrect_rratio 0.25))
  (pad 34 smd roundrect (at -2 7.9 90) (size 1.5 0.3) (layers F.Cu F.Paste F.Mask) (roundrect_rratio 0.25))
  (pad 35 smd roundrect (at -1.5 7.9 90) (size 1.5 0.3) (layers F.Cu F.Paste F.Mask) (roundrect_rratio 0.25))
  (pad 36 smd roundrect (at -1 7.9 90) (size 1.5 0.3) (layers F.Cu F.Paste F.Mask) (roundrect_rratio 0.25))
  (pad 37 smd roundrect (at -0.5 7.9 90) (size 1.5 0.3) (layers F.Cu F.Paste F.Mask) (roundrect_rratio 0.25))
  (pad 38 smd roundrect (at 0 7.9 90) (size 1.5 0.3) (layers F.Cu F.Paste F.Mask) (roundrect_rratio 0.25))
  (pad 39 smd roundrect (at 0.5 7.9 90) (size 1.5 0.3) (layers F.Cu F.Paste F.Mask) (roundrect_rratio 0.25))
  (pad 40 smd roundrect (at 1 7.9 270) (size 1.5 0.3) (layers F.Cu F.Paste F.Mask) (roundrect_rratio 0.25))
  (pad 41 smd roundrect (at 1.5 7.9 270) (size 1.5 0.3) (layers F.Cu F.Paste F.Mask) (roundrect_rratio 0.25))
  (pad 42 smd roundrect (at 2 7.9 270) (size 1.5 0.3) (layers F.Cu F.Paste F.Mask) (roundrect_rratio 0.25))
  (pad 43 smd roundrect (at 2.5 7.9 270) (size 1.5 0.3) (layers F.Cu F.Paste F.Mask) (roundrect_rratio 0.25))
  (pad 44 smd roundrect (at 3 7.9 270) (size 1.5 0.3) (layers F.Cu F.Paste F.Mask) (roundrect_rratio 0.25))
  (pad 45 smd roundrect (at 3.5 7.9 270) (size 1.5 0.3) (layers F.Cu F.Paste F.Mask) (roundrect_rratio 0.25))
  (pad 46 smd roundrect (at 4 7.9 270) (size 1.5 0.3) (layers F.Cu F.Paste F.Mask) (roundrect_rratio 0.25))
  (pad 47 smd roundrect (at 4.5 7.9 270) (size 1.5 0.3) (layers F.Cu F.Paste F.Mask) (roundrect_rratio 0.25))
  (pad 48 smd roundrect (at 5 7.9 90) (size 1.5 0.3) (layers F.Cu F.Paste F.Mask) (roundrect_rratio 0.25))
  (pad 49 smd roundrect (at 5.5 7.9 270) (size 1.5 0.3) (layers F.Cu F.Paste F.Mask) (roundrect_rratio 0.25))
  (pad 50 smd roundrect (at 6 7.9 270) (size 1.5 0.3) (layers F.Cu F.Paste F.Mask) (roundrect_rratio 0.25))
  (pad 51 smd roundrect (at 7.9 6) (size 1.5 0.3) (layers F.Cu F.Paste F.Mask) (roundrect_rratio 0.25))
  (pad 52 smd roundrect (at 7.9 5.5) (size 1.5 0.3) (layers F.Cu F.Paste F.Mask) (roundrect_rratio 0.25))
  (pad 53 smd roundrect (at 7.9 5) (size 1.5 0.3) (layers F.Cu F.Paste F.Mask) (roundrect_rratio 0.25))
  (pad 54 smd roundrect (at 7.9 4.5) (size 1.5 0.3) (layers F.Cu F.Paste F.Mask) (roundrect_rratio 0.25))
  (pad 55 smd roundrect (at 7.9 4) (size 1.5 0.3) (layers F.Cu F.Paste F.Mask) (roundrect_rratio 0.25))
  (pad 56 smd roundrect (at 7.9 3.5) (size 1.5 0.3) (layers F.Cu F.Paste F.Mask) (roundrect_rratio 0.25))
  (pad 57 smd roundrect (at 7.9 3) (size 1.5 0.3) (layers F.Cu F.Paste F.Mask) (roundrect_rratio 0.25))
  (pad 58 smd roundrect (at 7.9 2.5) (size 1.5 0.3) (layers F.Cu F.Paste F.Mask) (roundrect_rratio 0.25))
  (pad 59 smd roundrect (at 7.9 2) (size 1.5 0.3) (layers F.Cu F.Paste F.Mask) (roundrect_rratio 0.25))
  (pad 60 smd roundrect (at 7.9 1.5) (size 1.5 0.3) (layers F.Cu F.Paste F.Mask) (roundrect_rratio 0.25))
  (pad 61 smd roundrect (at 7.9 1) (size 1.5 0.3) (layers F.Cu F.Paste F.Mask) (roundrect_rratio 0.25))
  (pad 62 smd roundrect (at 7.9 0.5) (size 1.5 0.3) (layers F.Cu F.Paste F.Mask) (roundrect_rratio 0.25))
  (pad 63 smd roundrect (at 7.9 0) (size 1.5 0.3) (layers F.Cu F.Paste F.Mask) (roundrect_rratio 0.25))
  (pad 64 smd roundrect (at 7.9 -0.5) (size 1.5 0.3) (layers F.Cu F.Paste F.Mask) (roundrect_rratio 0.25))
  (pad 2 smd roundrect (at -7.9 -5.5) (size 1.5 0.3) (layers F.Cu F.Paste F.Mask) (roundrect_rratio 0.25))
  (pad 75 smd roundrect (at 7.9 -6) (size 1.5 0.3) (layers F.Cu F.Paste F.Mask) (roundrect_rratio 0.25))
  (pad 74 smd roundrect (at 7.9 -5.5) (size 1.5 0.3) (layers F.Cu F.Paste F.Mask) (roundrect_rratio 0.25))
  (pad 73 smd roundrect (at 7.9 -5) (size 1.5 0.3) (layers F.Cu F.Paste F.Mask) (roundrect_rratio 0.25))
  (pad 72 smd roundrect (at 7.9 -4.5) (size 1.5 0.3) (layers F.Cu F.Paste F.Mask) (roundrect_rratio 0.25))
  (pad 71 smd roundrect (at 7.9 -4) (size 1.5 0.3) (layers F.Cu F.Paste F.Mask) (roundrect_rratio 0.25))
  (pad 70 smd roundrect (at 7.9 -3.5) (size 1.5 0.3) (layers F.Cu F.Paste F.Mask) (roundrect_rratio 0.25))
  (pad 69 smd roundrect (at 7.9 -3) (size 1.5 0.3) (layers F.Cu F.Paste F.Mask) (roundrect_rratio 0.25))
  (pad 68 smd roundrect (at 7.9 -2.5) (size 1.5 0.3) (layers F.Cu F.Paste F.Mask) (roundrect_rratio 0.25))
  (pad 67 smd roundrect (at 7.9 -2) (size 1.5 0.3) (layers F.Cu F.Paste F.Mask) (roundrect_rratio 0.25))
  (pad 66 smd roundrect (at 7.9 -1.5) (size 1.5 0.3) (layers F.Cu F.Paste F.Mask) (roundrect_rratio 0.25))
  (pad 65 smd roundrect (at 7.9 -1) (size 1.5 0.3) (layers F.Cu F.Paste F.Mask) (roundrect_rratio 0.25))
  (pad 76 smd roundrect (at 6 -7.9 270) (size 1.5 0.3) (layers F.Cu F.Paste F.Mask) (roundrect_rratio 0.25))
  (pad 77 smd roundrect (at 5.5 -7.9 270) (size 1.5 0.3) (layers F.Cu F.Paste F.Mask) (roundrect_rratio 0.25))
  (pad 78 smd roundrect (at 5 -7.9 90) (size 1.5 0.3) (layers F.Cu F.Paste F.Mask) (roundrect_rratio 0.25))
  (pad 79 smd roundrect (at 4.5 -7.9 270) (size 1.5 0.3) (layers F.Cu F.Paste F.Mask) (roundrect_rratio 0.25))
  (pad 80 smd roundrect (at 4 -7.9 270) (size 1.5 0.3) (layers F.Cu F.Paste F.Mask) (roundrect_rratio 0.25))
  (pad 81 smd roundrect (at 3.5 -7.9 270) (size 1.5 0.3) (layers F.Cu F.Paste F.Mask) (roundrect_rratio 0.25))
  (pad 82 smd roundrect (at 3 -7.9 270) (size 1.5 0.3) (layers F.Cu F.Paste F.Mask) (roundrect_rratio 0.25))
  (pad 83 smd roundrect (at 2.5 -7.9 270) (size 1.5 0.3) (layers F.Cu F.Paste F.Mask) (roundrect_rratio 0.25))
  (pad 84 smd roundrect (at 2 -7.9 270) (size 1.5 0.3) (layers F.Cu F.Paste F.Mask) (roundrect_rratio 0.25))
  (pad 85 smd roundrect (at 1.5 -7.9 270) (size 1.5 0.3) (layers F.Cu F.Paste F.Mask) (roundrect_rratio 0.25))
  (pad 86 smd roundrect (at 1 -7.9 270) (size 1.5 0.3) (layers F.Cu F.Paste F.Mask) (roundrect_rratio 0.25))
  (pad 87 smd roundrect (at 0.5 -7.9 90) (size 1.5 0.3) (layers F.Cu F.Paste F.Mask) (roundrect_rratio 0.25))
  (pad 88 smd roundrect (at 0 -7.9 90) (size 1.5 0.3) (layers F.Cu F.Paste F.Mask) (roundrect_rratio 0.25))
  (pad 89 smd roundrect (at -0.5 -7.9 90) (size 1.5 0.3) (layers F.Cu F.Paste F.Mask) (roundrect_rratio 0.25))
  (pad 90 smd roundrect (at -1 -7.9 90) (size 1.5 0.3) (layers F.Cu F.Paste F.Mask) (roundrect_rratio 0.25))
  (pad 91 smd roundrect (at -1.5 -7.9 90) (size 1.5 0.3) (layers F.Cu F.Paste F.Mask) (roundrect_rratio 0.25))
  (pad 92 smd roundrect (at -2 -7.9 90) (size 1.5 0.3) (layers F.Cu F.Paste F.Mask) (roundrect_rratio 0.25))
  (pad 93 smd roundrect (at -2.5 -7.9 90) (size 1.5 0.3) (layers F.Cu F.Paste F.Mask) (roundrect_rratio 0.25))
  (pad 94 smd roundrect (at -3 -7.9 90) (size 1.5 0.3) (layers F.Cu F.Paste F.Mask) (roundrect_rratio 0.25))
  (pad 95 smd roundrect (at -3.5 -7.9 90) (size 1.5 0.3) (layers F.Cu F.Paste F.Mask) (roundrect_rratio 0.25))
  (pad 96 smd roundrect (at -4 -7.9 90) (size 1.5 0.3) (layers F.Cu F.Paste F.Mask) (roundrect_rratio 0.25))
  (pad 97 smd roundrect (at -4.5 -7.9 90) (size 1.5 0.3) (layers F.Cu F.Paste F.Mask) (roundrect_rratio 0.25))
  (pad 98 smd roundrect (at -5 -7.9 90) (size 1.5 0.3) (layers F.Cu F.Paste F.Mask) (roundrect_rratio 0.25))
  (pad 99 smd roundrect (at -5.5 -7.9 90) (size 1.5 0.3) (layers F.Cu F.Paste F.Mask) (roundrect_rratio 0.25))
  (pad 100 smd roundrect (at -6 -7.9 90) (size 1.5 0.3) (layers F.Cu F.Paste F.Mask) (roundrect_rratio 0.25))
  (model ${KICAD_3D_FOLDER}/LQFP-100_14x14mm_P0.5mm.STEP
    (at (xyz 0 0 0))
    (scale (xyz 1 1 1))
    (rotate (xyz -90 0 0))
  )
)
