(module SOIC95P290X250X110-6MD-INFINEON-SC74 (layer F.Cu) (tedit 5C3908D1)
  (fp_text reference REF** (at 0 -2.75) (layer F.SilkS)
    (effects (font (size 1 1) (thickness 0.1)))
  )
  (fp_text value SOIC95P290X250X110-6MD-INFINEON-SC74 (at 0 0) (layer F.Fab)
    (effects (font (size 1 1) (thickness 0.1)))
  )
  (fp_line (start -1.45 -0.8) (end 1.45 -0.8) (layer F.Fab) (width 0.01))
  (fp_line (start -1.2 -0.8) (end -1.2 -2.1) (layer F.CrtYd) (width 0.01))
  (fp_line (start -1.2 -2.1) (end 1.2 -2.1) (layer F.CrtYd) (width 0.01))
  (fp_line (start 1.2 -2.1) (end 1.2 -0.8) (layer F.CrtYd) (width 0.01))
  (fp_line (start 1.2 -0.8) (end 1.45 -0.8) (layer F.CrtYd) (width 0.01))
  (fp_line (start 1.45 -0.8) (end 1.45 0.8) (layer F.CrtYd) (width 0.01))
  (fp_line (start 1.45 0.8) (end 1.2 0.8) (layer F.CrtYd) (width 0.01))
  (fp_line (start 1.2 0.8) (end 1.2 2.1) (layer F.CrtYd) (width 0.01))
  (fp_line (start 1.2 2.1) (end -1.2 2.1) (layer F.CrtYd) (width 0.01))
  (fp_line (start -1.2 2.1) (end -1.2 0.8) (layer F.CrtYd) (width 0.01))
  (fp_line (start -1.45 -0.8) (end -1.45 0.8) (layer F.CrtYd) (width 0.01))
  (fp_line (start -1.2 0.8) (end -1.45 0.8) (layer F.CrtYd) (width 0.01))
  (fp_line (start -1.2 -0.8) (end -1.45 -0.8) (layer F.CrtYd) (width 0.01))
  (fp_line (start -1.45 -0.8) (end -1.45 0.8) (layer F.Fab) (width 0.01))
  (fp_line (start -1.45 0.8) (end 1.45 0.8) (layer F.Fab) (width 0.01))
  (fp_line (start 1.45 0.8) (end 1.45 -0.8) (layer F.Fab) (width 0.01))
  (fp_line (start -1.5 -2.4) (end 1.5 -2.4) (layer F.CrtYd) (width 0.01))
  (fp_line (start -1.75 -1.1) (end -1.75 1.1) (layer F.CrtYd) (width 0.01))
  (fp_line (start -1.75 -1.1) (end -1.5 -1.1) (layer F.CrtYd) (width 0.01))
  (fp_line (start -1.5 -1.1) (end -1.5 -2.4) (layer F.CrtYd) (width 0.01))
  (fp_line (start -1.5 2.4) (end 1.5 2.4) (layer F.CrtYd) (width 0.01))
  (fp_line (start -1.5 2.4) (end -1.5 1.1) (layer F.CrtYd) (width 0.01))
  (fp_line (start -1.75 1.1) (end -1.5 1.1) (layer F.CrtYd) (width 0.01))
  (fp_line (start 1.75 -1.1) (end 1.75 1.1) (layer F.CrtYd) (width 0.01))
  (fp_line (start 1.5 2.4) (end 1.5 1.1) (layer F.CrtYd) (width 0.01))
  (fp_line (start 1.5 1.1) (end 1.75 1.1) (layer F.CrtYd) (width 0.01))
  (fp_line (start 1.5 -2.4) (end 1.5 -1.1) (layer F.CrtYd) (width 0.01))
  (fp_line (start 1.5 -1.1) (end 1.75 -1.1) (layer F.CrtYd) (width 0.01))
  (fp_line (start -1.45 -0.55) (end 1.45 -0.55) (layer F.SilkS) (width 0.1))
  (fp_line (start -1.45 0.55) (end 1.45 0.55) (layer F.SilkS) (width 0.1))
  (fp_line (start 1.45 0.55) (end 1.45 -0.55) (layer F.SilkS) (width 0.1))
  (fp_line (start -1.45 0.55) (end -1.45 -0.55) (layer F.SilkS) (width 0.1))
  (fp_line (start -1.45 0.05) (end -0.95 0.55) (layer F.SilkS) (width 0.1))
  (pad 1 smd roundrect (at -0.95 1.45) (size 0.5 1.3) (layers F.Cu F.Paste F.Mask) (roundrect_rratio 0.25))
  (pad 2 smd roundrect (at 0 1.45) (size 0.5 1.3) (layers F.Cu F.Paste F.Mask) (roundrect_rratio 0.25))
  (pad 3 smd roundrect (at 0.95 1.45) (size 0.5 1.3) (layers F.Cu F.Paste F.Mask) (roundrect_rratio 0.25))
  (pad 4 smd roundrect (at 0.95 -1.45) (size 0.5 1.3) (layers F.Cu F.Paste F.Mask) (roundrect_rratio 0.25))
  (pad 6 smd roundrect (at -0.95 -1.45) (size 0.5 1.3) (layers F.Cu F.Paste F.Mask) (roundrect_rratio 0.25))
  (pad 5 smd roundrect (at 0 -1.45) (size 0.5 1.3) (layers F.Cu F.Paste F.Mask) (roundrect_rratio 0.25))
  (model ${KICAD_3D_FOLDER}/SOIC95P290X250X110-6MD-INFINEON-SC74.step
    (at (xyz 0 0 0))
    (scale (xyz 1 1 1))
    (rotate (xyz 0 0 180))
  )
)
