(module TESTPOINT_RND_1mm_SingleSide (layer F.Cu) (tedit 5AF996A3)
  (fp_text reference REF** (at 3 0) (layer F.SilkS)
    (effects (font (size 1 1) (thickness 0.1)))
  )
  (fp_text value TESTPOINT_RND_1mm (at 0 0) (layer F.Fab)
    (effects (font (size 1 1) (thickness 0.1)))
  )
  (fp_circle (center 0 0) (end 0.5 0) (layer F.CrtYd) (width 0.01))
  (fp_circle (center 0 0) (end 0.8 0) (layer F.CrtYd) (width 0.01))
  (pad 1 smd circle (at 0 0) (size 1 1) (layers F.Cu F.Paste F.Mask))
)
