(module JST_B2B-XH-A (layer F.Cu) (tedit 5C3913AD)
  (fp_text reference REF** (at 0 -5.6) (layer F.SilkS)
    (effects (font (size 1 1) (thickness 0.15)))
  )
  (fp_text value JST_B2B-XH-A (at 0 -1.25 180) (layer F.Fab)
    (effects (font (size 1 1) (thickness 0.15)))
  )
  (fp_line (start -2.35 -4.95) (end -2.35 2.45) (layer F.Fab) (width 0.01))
  (fp_line (start 3.4 -4.95) (end 3.4 2.45) (layer F.Fab) (width 0.01))
  (fp_line (start -2.35 -4.95) (end 3.4 -4.95) (layer F.Fab) (width 0.01))
  (fp_line (start -2.35 2.45) (end 3.4 2.45) (layer F.Fab) (width 0.01))
  (fp_line (start -2.35 2.45) (end 3.4 2.45) (layer F.CrtYd) (width 0.01))
  (fp_line (start 3.4 2.45) (end 3.4 -4.95) (layer F.CrtYd) (width 0.01))
  (fp_line (start 3.4 -4.95) (end -2.35 -4.95) (layer F.CrtYd) (width 0.01))
  (fp_line (start -2.35 -4.95) (end -2.35 2.45) (layer F.CrtYd) (width 0.01))
  (fp_line (start 3.7 2.75) (end 3.7 -5.25) (layer F.CrtYd) (width 0.01))
  (fp_line (start -2.65 -5.25) (end 3.7 -5.25) (layer F.CrtYd) (width 0.01))
  (fp_line (start -2.65 -5.25) (end -2.65 2.75) (layer F.CrtYd) (width 0.01))
  (fp_line (start 3.7 2.75) (end -2.65 2.75) (layer F.CrtYd) (width 0.01))
  (fp_line (start -2.35 -4.95) (end 3.4 -4.95) (layer F.SilkS) (width 0.1))
  (fp_line (start 3.4 -4.95) (end 3.4 2.45) (layer F.SilkS) (width 0.1))
  (fp_line (start 3.4 2.45) (end -2.35 2.45) (layer F.SilkS) (width 0.1))
  (fp_line (start -2.35 2.45) (end -2.35 -4.95) (layer F.SilkS) (width 0.1))
  (fp_line (start -2.6 0) (end -3.6 0.5) (layer F.SilkS) (width 0.1))
  (fp_line (start -3.6 -0.5) (end -3.6 0.5) (layer F.SilkS) (width 0.1))
  (fp_line (start -3.6 -0.5) (end -2.6 0) (layer F.SilkS) (width 0.1))
  (fp_line (start -2.35 -2.5) (end -1.9 -2.5) (layer F.Fab) (width 0.01))
  (fp_line (start -1.9 -2.5) (end -1.9 0) (layer F.Fab) (width 0.01))
  (fp_line (start -1.9 0) (end -2.35 0) (layer F.Fab) (width 0.01))
  (pad 1 thru_hole roundrect (at 0 0) (size 1.6 1.6) (drill 1) (layers *.Cu *.Mask) (roundrect_rratio 0.25))
  (pad 2 thru_hole circle (at 0 -2.5) (size 1.6 1.6) (drill 1) (layers *.Cu *.Mask))
  (model ${KICAD_3D_FOLDER}/JST_B2B-XH-A.step
    (at (xyz 0 0 0))
    (scale (xyz 1 1 1))
    (rotate (xyz 0 0 0))
  )
)
