(module PINHEADER_2.54MM_1x5 (layer F.Cu) (tedit 5AFE8427)
  (fp_text reference REF** (at 0 -2.54) (layer F.SilkS)
    (effects (font (size 1 1) (thickness 0.1)))
  )
  (fp_text value PINHEADER_2.54MM_1x5 (at 0 0) (layer F.Fab)
    (effects (font (size 1 1) (thickness 0.1)))
  )
  (fp_line (start -1.27 -1.27) (end 1.27 -1.27) (layer F.Fab) (width 0.01))
  (fp_line (start 1.27 -1.27) (end 1.27 11.43) (layer F.Fab) (width 0.01))
  (fp_line (start 1.27 11.43) (end -1.27 11.43) (layer F.Fab) (width 0.01))
  (fp_line (start -1.27 11.43) (end -1.27 -1.27) (layer F.Fab) (width 0.01))
  (fp_line (start -1.27 -1.27) (end 1.27 -1.27) (layer F.CrtYd) (width 0.01))
  (fp_line (start 1.27 -1.27) (end 1.27 11.43) (layer F.CrtYd) (width 0.01))
  (fp_line (start 1.27 11.43) (end -1.27 11.43) (layer F.CrtYd) (width 0.01))
  (fp_line (start -1.27 11.43) (end -1.27 -1.27) (layer F.CrtYd) (width 0.01))
  (fp_line (start 1.77 11.93) (end -1.77 11.93) (layer F.CrtYd) (width 0.01))
  (fp_line (start 1.77 -1.77) (end 1.77 11.93) (layer F.CrtYd) (width 0.01))
  (fp_line (start -1.77 11.93) (end -1.77 -1.77) (layer F.CrtYd) (width 0.01))
  (fp_line (start -1.77 -1.77) (end 1.77 -1.77) (layer F.CrtYd) (width 0.01))
  (fp_line (start -1.27 -1.27) (end 1.27 -1.27) (layer F.SilkS) (width 0.1))
  (fp_line (start 1.27 -1.27) (end 1.27 11.43) (layer F.SilkS) (width 0.1))
  (fp_line (start 1.27 11.43) (end -1.27 11.43) (layer F.SilkS) (width 0.1))
  (fp_line (start -1.27 11.43) (end -1.27 -1.27) (layer F.SilkS) (width 0.1))
  (fp_line (start -1.77 0) (end -2.27 -0.5) (layer F.SilkS) (width 0.1))
  (fp_line (start -1.77 0) (end -2.27 0.5) (layer F.SilkS) (width 0.1))
  (fp_line (start -2.27 0.5) (end -2.27 -0.5) (layer F.SilkS) (width 0.1))
  (pad 1 thru_hole roundrect (at 0 0) (size 1.7 1.7) (drill 1.1) (layers *.Cu *.Mask)(roundrect_rratio 0.1))
  (pad 2 thru_hole circle (at 0 2.54) (size 1.7 1.7) (drill 1.1) (layers *.Cu *.Mask))
  (pad 3 thru_hole circle (at 0 5.08) (size 1.7 1.7) (drill 1.1) (layers *.Cu *.Mask))
  (pad 4 thru_hole circle (at 0 7.62) (size 1.7 1.7) (drill 1.1) (layers *.Cu *.Mask))
  (pad 5 thru_hole circle (at 0 10.16) (size 1.7 1.7) (drill 1.1) (layers *.Cu *.Mask))
  (model ${KICAD_3D_FOLDER}/TSW-105-07-G-S.stp
    (offset (xyz 0 -5.08 0))
    (scale (xyz 1 1 1))
    (rotate (xyz -90 0 90))
  )
)
